  -0.50868,4113.20144
  -0.47689,3907.54099
  -0.44510,3701.88089
  -0.41331,3496.22085
  -0.38155,3290.56064
  -0.34984,3084.90070
  -0.31824,2879.24037
  -0.28680,2673.58164
  -0.25564,2467.91990
  -0.22490,2262.26102
  -0.19473,2056.60038
  -0.16536,1850.94056
  -0.13706,1645.28040
  -0.11013,1439.62045
  -0.08496,1233.96024
  -0.06197,1028.30030
  -0.04167, 822.64028
  -0.02463, 616.98022
  -0.01151, 411.32009
  -0.00302, 205.66002
  -0.00000,   0.00011
