  -1.98655,2155.61332
  -1.86239,2047.83246
  -1.73823,1940.05178
  -1.61411,1832.27113
  -1.49007,1724.49039
  -1.36624,1616.70979
  -1.24280,1508.92899
  -1.12004,1401.14902
  -0.99836,1293.36750
  -0.87828,1185.58744
  -0.76047,1077.80648
  -0.64579, 970.02595
  -0.53526, 862.24524
  -0.43010, 754.46463
  -0.33179, 646.68389
  -0.24201, 538.90330
  -0.16274, 431.12266
  -0.09620, 323.34200
  -0.04494, 215.56130
  -0.01181, 107.78064
  -0.00000,   0.00006
