# LR, dist
2.50000,0.16400
2.72414,0.17067
2.94828,0.17733
3.17241,0.18533
3.39655,0.19467
3.62069,0.20400
3.84483,0.21467
4.06897,0.22667
4.29310,0.24000
4.51724,0.25600
4.74138,0.27467
4.96552,0.29600
5.18966,0.32267
5.41379,0.35467
5.63793,0.39600
5.86207,0.44800
6.08621,0.52000
6.31034,0.63333
6.53448,0.95467
6.75862,0.92267
6.98276,0.87200
7.20690,0.78933
7.43103,0.66933
7.65517,0.55333
7.87931,0.46800
8.10345,0.40667
8.32759,0.36133
8.55172,0.32667
8.77586,0.30000
9.00000,0.27733
